…
Table 4. Sample mean, max and min of PM2.5 per month

As seen in Table 3 and 4, there are variations in the PM2.5 levels across the years and months. Looking at the statistic trends for years, 2016 had the lowest mean, yet highest max; 2015 had the lowest max value but its mean was same as 2013. The mean PM2.5 level is generally at the lowest in August and September. There are no significant differences among these statistical summary values to answer the main question. As such, we will perform further data wrangling and exploration to find out more representative characteristics of our data.

Data Wrangling

We are interested to determine how PM2.5 has changed over two time periods - between March 1 2013 to Feb 28 2015, and March 1 2015 to Feb 28 2017. More specifically, we set out to answer these questions:

How does the distribution of air quality data observations look like? Are they normally distributed?

If we split the data into sub data sets based on time frames, will there be any overlap in the ranges of the samples?

As such, we drop all irrelevant columns, and only kept year, month, PM2.5. We created a derived column ‘class’, which will act as our target variable.

## # A tibble: 412,029 × 4
##     year month PM2.5 class 
##    <dbl> <dbl> <dbl> <chr> 
##  1  2013     3     4 time_A
##  2  2013     3     8 time_A
##  3  2013     3     7 time_A
##  4  2013     3     6 time_A
##  5  2013     3     3 time_A
##  6  2013     3     5 time_A
##  7  2013     3     3 time_A
##  8  2013     3     3 time_A
##  9  2013     3     3 time_A
## 10  2013     3     3 time_A
## # … with 412,019 more rows
…
