…
(Histogram + short description)

# Data Wrangling

We are interested to determine how PM2.5 has changed over two time
periods - between **March 1 2013 to Feb 28 2015**, and **March 1 2015 to
Feb 28 2017**. As such, we will drop all irrelevant columns, and only
kept year, month, PM2.5. We have also created a derived column ‘class’,
which will act as our target variable.

    ## # A tibble: 420,768 × 4
    ##     year month PM2.5 class 
    ##    <dbl> <dbl> <dbl> <chr> 
    ##  1  2013     3     4 time_A
    ##  2  2013     3     8 time_A
    ##  3  2013     3     7 time_A
    ##  4  2013     3     6 time_A
    ##  5  2013     3     3 time_A
    ##  6  2013     3     5 time_A
    ##  7  2013     3     3 time_A
    ##  8  2013     3     3 time_A
    ##  9  2013     3     3 time_A
    ## 10  2013     3     3 time_A
    ## # … with 420,758 more rows
…
